{ "height":10,
 "layers":[
        {
         "data":[2, 2, 5, 0, 2, 2, 0, 0, 0, 0, 0, 0, 0, 0, 0, 0, 0, 0, 0, 0, 0, 0, 0, 0, 0, 0, 0, 0, 0, 0, 0, 0, 0, 0, 0, 0, 0, 0, 0, 0, 0, 0, 0, 0, 0, 0, 0, 0, 0, 0, 0, 0, 0, 0, 0, 0, 0, 9, 0, 0],
         "height":10,
         "name":"open_1",
         "opacity":1,
         "type":"tilelayer",
         "visible":true,
         "width":6,
         "x":0,
         "y":0
        }, 
        {
         "data":[2, 2, 10, 2, 2, 2, 0, 0, 10, 0, 0, 0, 0, 0, 10, 0, 0, 0, 0, 0, 10, 0, 0, 0, 0, 0, 10, 0, 0, 0, 0, 0, 10, 0, 0, 0, 0, 0, 10, 5, 0, 0, 0, 0, 10, 0, 0, 0, 0, 0, 10, 0, 0, 0, 13, 0, 0, 0, 0, 13],
         "height":10,
         "name":"open_2",
         "opacity":1,
         "type":"tilelayer",
         "visible":false,
         "width":6,
         "x":0,
         "y":0
        }, 
        {
         "data":[2, 2, 2, 2, 10, 2, 0, 0, 0, 0, 10, 0, 0, 0, 18, 18, 10, 0, 0, 10, 2, 2, 10, 0, 0, 10, 0, 0, 0, 0, 0, 10, 0, 0, 0, 0, 0, 10, 18, 18, 0, 0, 0, 10, 2, 2, 10, 0, 0, 0, 0, 0, 10, 0, 0, 0, 0, 0, 10, 0],
         "height":10,
         "name":"open_3",
         "opacity":1,
         "type":"tilelayer",
         "visible":false,
         "width":6,
         "x":0,
         "y":0
        }, 
        {
         "data":[2, 2, 0, 0, 2, 2, 0, 4, 2, 0, 0, 0, 0, 5, 4, 2, 10, 0, 0, 0, 0, 0, 10, 0, 0, 0, 18, 18, 10, 0, 0, 10, 2, 2, 2, 0, 0, 10, 0, 0, 0, 0, 0, 10, 18, 0, 0, 0, 0, 2, 2, 0, 0, 0, 0, 0, 0, 0, 0, 0],
         "height":10,
         "name":"open_4",
         "opacity":1,
         "type":"tilelayer",
         "visible":false,
         "width":6,
         "x":0,
         "y":0
        }],
 "nextobjectid":1,
 "orientation":"orthogonal",
 "renderorder":"right-down",
 "tiledversion":"1.0.3",
 "tileheight":128,
 "tilesets":[
        {
         "firstgid":1,
         "source":"..\/..\/Resources\/Tileset1.json"
        }],
 "tilewidth":128,
 "type":"map",
 "version":1,
 "width":6
}